<?xml version="1.0" encoding="UTF-8"?>
<svg width="28px" height="28px" viewBox="0 0 28 28" version="1.1" xmlns="http://www.w3.org/2000/svg" xmlns:xlink="http://www.w3.org/1999/xlink">
    <title>FB5B7952-D359-41F1-B967-D51350C6346F</title>
    <g id="Design" stroke="none" stroke-width="1" fill="none" fill-rule="evenodd">
        <g id="About-us--Design" transform="translate(-1137.000000, -1033.000000)" fill="#B5995E" fill-rule="nonzero">
            <g id="linkedin" transform="translate(1137.000000, 1033.000000)">
                <path d="M25.9806214,-2.84217094e-14 L2.01937865,-2.84217094e-14 C0.904052734,-2.84217094e-14 2.84217094e-14,0.904052734 2.84217094e-14,2.01937865 L2.84217094e-14,25.9806214 C2.84217094e-14,27.0959473 0.904052734,28 2.01937865,28 L25.9806214,28 C27.0959473,28 28,27.0959473 28,25.9806214 L28,2.01937865 C28,0.904052734 27.0959473,-2.84217094e-14 25.9806214,-2.84217094e-14 Z M9.9317627,21.1640625 L6.52212526,21.1640625 L6.52212526,10.9060974 L9.9317627,10.9060974 L9.9317627,21.1640625 Z M8.22705078,9.50537109 L8.20483398,9.50537109 C7.06066895,9.50537109 6.32067871,8.71774291 6.32067871,7.73336791 C6.32067871,6.72677611 7.08331302,5.9609375 8.2496948,5.9609375 C9.41607669,5.9609375 10.1338501,6.72677611 10.1560669,7.73336791 C10.1560669,8.71774291 9.41607669,9.50537109 8.22705078,9.50537109 Z M22.2261963,21.1640625 L18.8169861,21.1640625 L18.8169861,15.6763001 C18.8169861,14.2971497 18.3233033,13.3565674 17.0896301,13.3565674 C16.1477661,13.3565674 15.586792,13.9910279 15.340271,14.6034851 C15.2501221,14.8226624 15.2281189,15.1289978 15.2281189,15.4355469 L15.2281189,21.1640625 L11.8186951,21.1640625 C11.8186951,21.1640625 11.8633423,11.8684693 11.8186951,10.9060974 L15.2281189,10.9060974 L15.2281189,12.3585205 C15.6812134,11.6595459 16.4919128,10.6653443 18.3008728,10.6653443 C20.5441284,10.6653443 22.2261963,12.1314392 22.2261963,15.2821655 L22.2261963,21.1640625 Z"></path>
            </g>
        </g>
    </g>
</svg>