<?xml version="1.0" encoding="UTF-8"?>
<svg width="14px" height="14px" viewBox="0 0 14 14" version="1.1" xmlns="http://www.w3.org/2000/svg" xmlns:xlink="http://www.w3.org/1999/xlink">
    <title>4127AE13-9797-4AF5-888B-30EA20CFC80B</title>
    <g id="Design" stroke="none" stroke-width="1" fill="none" fill-rule="evenodd">
        <g id="Article-Detail-Page--Design" transform="translate(-458.000000, -7587.000000)" fill="#6C6C6C" fill-rule="nonzero">
            <g id="comment-(2)" transform="translate(458.000000, 7587.000000)">
                <path d="M9.8022617,0 L4.20216836,0 C1.88629643,0 0.00209836066,1.88419807 0.00209836066,4.20007 L0.00209836066,7.46679111 C0.00209836066,9.78266304 1.88629643,11.6668611 4.20216836,11.6668611 L4.61750862,11.6668611 C6.24340238,11.6668611 7.77199453,12.299905 8.92164702,13.4495575 L9.35938765,13.8875315 C9.43452223,13.9624327 9.53345722,14.0037334 9.63822563,14.0037334 C9.85709594,14.0037334 10.0353656,13.8259304 10.0353656,13.6072935 L10.0353656,11.6603277 C12.2432024,11.538759 14.0020984,9.70426174 14.0020984,7.46655778 L14.0020984,4.20007 C14.0023317,1.88419807 12.1179003,0 9.8022617,0 Z" id="Path"></path>
            </g>
        </g>
    </g>
</svg>