<?xml version="1.0" encoding="UTF-8"?>
<svg width="19px" height="18px" viewBox="0 0 19 18" version="1.1" xmlns="http://www.w3.org/2000/svg" xmlns:xlink="http://www.w3.org/1999/xlink">
    <title>372A6063-9C72-41C9-B84D-ACDFAB7729ED</title>
    <g id="CMS-Wireframe" stroke="none" stroke-width="1" fill="none" fill-rule="evenodd">
        <g id="Dashboard---Design" transform="translate(-36.000000, -649.000000)">
            <g id="Tab/Static-Copy-9" transform="translate(0.000000, 632.000000)">
                <g id="icon" transform="translate(36.857692, 17.000000)">
                    <rect id="Rectangle" fill="#001A3B" opacity="0" x="0" y="0" width="17.9307692" height="18"></rect>
                    <g id="icons/dashboard" fill="#FFFFFF" fill-rule="nonzero">
                        <g id="book" transform="translate(1.494231, 0.000000)">
                            <path d="M2.11877254,15.1875 L13.010314,15.1875 C14.1689499,15.1875 15.111576,14.2412344 15.111576,13.078125 L15.111576,2.109375 C15.111576,0.946265625 14.1689499,0 13.010314,0 L2.11877254,0 C0.960136659,0 0.0175105168,0.946265625 0.0175105168,2.109375 L0.0175105168,15.890625 C0.0175105168,17.0537344 0.960136659,18 2.11877254,18 L13.010314,18 C14.1689499,18 15.111576,17.0537344 15.111576,15.890625 L15.111576,15.8888672 C14.5258492,16.3312383 13.7980771,16.59375 13.010314,16.59375 L2.11877254,16.59375 C1.73256058,16.59375 1.41835186,16.2783281 1.41835186,15.890625 C1.41835186,15.5029219 1.73256058,15.1875 2.11877254,15.1875 Z M1.41835186,2.109375 C1.41835186,1.72167187 1.73256058,1.40625 2.11877254,1.40625 L13.010314,1.40625 C13.396526,1.40625 13.7107347,1.72167187 13.7107347,2.109375 L13.7107347,13.078125 C13.7107347,13.4658281 13.396526,13.78125 13.010314,13.78125 L2.11877254,13.78125 C1.87331011,13.78125 1.63751349,13.8237187 1.41835186,13.9017305 L1.41835186,2.109375 Z" id="Shape"></path>
                        </g>
                    </g>
                </g>
            </g>
        </g>
    </g>
</svg>