<?xml version="1.0" encoding="UTF-8"?>
<svg width="21px" height="19px" viewBox="0 0 21 19" version="1.1" xmlns="http://www.w3.org/2000/svg" xmlns:xlink="http://www.w3.org/1999/xlink">
    <title>F8D1715D-7C54-4A49-A4FC-81F09D5521CE</title>
    <g id="CMS-Wireframe" stroke="none" stroke-width="1" fill="none" fill-rule="evenodd">
        <g id="Dashboard---Design" transform="translate(-35.000000, -151.000000)">
            <g id="Tab/Static-Copy" transform="translate(0.000000, 135.000000)">
                <g id="icon" transform="translate(36.857692, 17.000000)">
                    <rect id="Rectangle" fill="#001A3B" opacity="0" x="0" y="0" width="17.9307692" height="18"></rect>
                    <g id="icons/dashboard" fill="#FFFFFF" fill-rule="nonzero">
                        <g id="article" transform="translate(0.000000, 0.750000)">
                            <path d="M14.3819712,6.75 L11.7670673,6.75 C11.4577615,6.75 11.2067308,6.498 11.2067308,6.1875 C11.2067308,5.877 11.4577615,5.625 11.7670673,5.625 L14.3819712,5.625 C14.6912769,5.625 14.9423077,5.877 14.9423077,6.1875 C14.9423077,6.498 14.6912769,6.75 14.3819712,6.75 Z" id="Path"></path>
                            <path d="M14.3819712,9 L11.7670673,9 C11.4577615,9 11.2067308,8.748 11.2067308,8.4375 C11.2067308,8.127 11.4577615,7.875 11.7670673,7.875 L14.3819712,7.875 C14.6912769,7.875 14.9423077,8.127 14.9423077,8.4375 C14.9423077,8.748 14.6912769,9 14.3819712,9 Z" id="Path"></path>
                            <path d="M14.3819712,11.25 L11.7670673,11.25 C11.4577615,11.25 11.2067308,10.998 11.2067308,10.6875 C11.2067308,10.377 11.4577615,10.125 11.7670673,10.125 L14.3819712,10.125 C14.6912769,10.125 14.9423077,10.377 14.9423077,10.6875 C14.9423077,10.998 14.6912769,11.25 14.3819712,11.25 Z" id="Path"></path>
                            <path d="M8.40504808,12 L4.29591346,12 C3.57494712,12 2.98846154,11.41125 2.98846154,10.6875 L2.98846154,6.5625 C2.98846154,5.83875 3.57494712,5.25 4.29591346,5.25 L8.40504808,5.25 C9.12601442,5.25 9.7125,5.83875 9.7125,6.5625 L9.7125,10.6875 C9.7125,11.41125 9.12601442,12 8.40504808,12 Z M4.29591346,6.375 C4.19281154,6.375 4.10913462,6.459 4.10913462,6.5625 L4.10913462,10.6875 C4.10913462,10.791 4.19281154,10.875 4.29591346,10.875 L8.40504808,10.875 C8.50815,10.875 8.59182692,10.791 8.59182692,10.6875 L8.59182692,6.5625 C8.59182692,6.459 8.50815,6.375 8.40504808,6.375 L4.29591346,6.375 Z" id="Shape"></path>
                            <path d="M15.8762019,16.5 L2.05456731,16.5 C0.921193269,16.5 0,15.57525 0,14.4375 L0,2.0625 C0,0.92475 0.921193269,0 2.05456731,0 L15.8762019,0 C17.009576,0 17.9307692,0.92475 17.9307692,2.0625 L17.9307692,14.4375 C17.9307692,15.57525 17.009576,16.5 15.8762019,16.5 Z M2.05456731,1.125 C1.53980481,1.125 1.12067308,1.54575 1.12067308,2.0625 L1.12067308,14.4375 C1.12067308,14.95425 1.53980481,15.375 2.05456731,15.375 L15.8762019,15.375 C16.3909644,15.375 16.8100962,14.95425 16.8100962,14.4375 L16.8100962,2.0625 C16.8100962,1.54575 16.3909644,1.125 15.8762019,1.125 L2.05456731,1.125 Z" id="Shape" stroke="#FFFFFF" stroke-width="0.5"></path>
                            <path d="M17.3704327,3.75 L0.560336538,3.75 C0.251030769,3.75 0,3.498 0,3.1875 C0,2.877 0.251030769,2.625 0.560336538,2.625 L17.3704327,2.625 C17.6797385,2.625 17.9307692,2.877 17.9307692,3.1875 C17.9307692,3.498 17.6797385,3.75 17.3704327,3.75 Z" id="Path"></path>
                        </g>
                    </g>
                </g>
            </g>
        </g>
    </g>
</svg>