<?xml version="1.0" encoding="UTF-8"?>
<svg width="18px" height="18px" viewBox="0 0 18 18" version="1.1" xmlns="http://www.w3.org/2000/svg" xmlns:xlink="http://www.w3.org/1999/xlink">
    <title>D3D8FBBA-5369-43A5-ABA5-64A43D32033B</title>
    <g id="Design" stroke="none" stroke-width="1" fill="none" fill-rule="evenodd">
        <g id="Homepage-Final" transform="translate(-702.000000, -3460.000000)" fill="#003D98" fill-rule="nonzero">
            <g id="Footer" transform="translate(0.000000, 3383.000000)">
                <g id="phone-call" transform="translate(702.000000, 77.000000)">
                    <path d="M17.497821,13.2009339 L14.9876265,10.6907393 C14.0911284,9.79424125 12.5670817,10.1528755 12.2084825,11.3182879 C11.9395331,12.1251712 11.043035,12.5734202 10.2361868,12.3940856 C8.44319066,11.9458366 6.02264591,9.61494163 5.57439689,7.73229572 C5.30544747,6.92541245 5.8433463,6.0289144 6.65019455,5.76 C7.81564202,5.40140078 8.17424125,3.87735409 7.27774319,2.98085603 L4.76754864,0.470661479 C4.05035019,-0.15688716 2.97455253,-0.15688716 2.34700389,0.470661479 L0.643657588,2.17400778 C-1.05968872,3.96700389 0.822957198,8.71844358 5.03649805,12.9319844 C9.25003891,17.1455253 14.0014786,19.117856 15.7944747,17.3248249 L17.497821,15.6214786 C18.1254047,14.9042802 18.1254047,13.8284825 17.497821,13.2009339 Z" id="Path"></path>
                </g>
            </g>
        </g>
    </g>
</svg>