<?xml version="1.0" encoding="UTF-8"?>
<svg width="408px" height="160px" viewBox="0 0 408 160" version="1.1" xmlns="http://www.w3.org/2000/svg" xmlns:xlink="http://www.w3.org/1999/xlink">
    <title>B049BFD4-09BD-4D59-8A97-9FAB6DD9FE8A</title>
    <g id="Design" stroke="none" stroke-width="1" fill="none" fill-rule="evenodd">
        <g id="404" transform="translate(-516.000000, -180.000000)" fill-rule="nonzero">
            <g transform="translate(516.000000, 180.000000)">
                <path d="M82.8,155.5 C84.6666667,155.5 85.6,154.7 85.6,153.1 L85.6,153.1 L85.6,116.5 C85.6,115.166667 86.1333333,114.5 87.2,114.5 L87.2,114.5 L106.4,114.5 C108.133333,114.5 109,113.7 109,112.1 L109,112.1 L109,104.3 C109,103.1 108.2,102.5 106.6,102.5 L106.6,102.5 L87,102.5 C86.0666667,102.5 85.6,101.966667 85.6,100.9 L85.6,100.9 L85.6,9.3 C85.6,7.83333333 84.8666667,7.1 83.4,7.1 L83.4,7.1 L72.8,7.1 C71.0666667,7.1 69.7333333,7.63333333 68.8,8.7 L68.8,8.7 L2.6,97.9 C0.866666667,100.166667 0,102.033333 0,103.5 L0,103.5 L0,112.1 C0,113.7 0.866666667,114.5 2.6,114.5 L2.6,114.5 L68.6,114.5 C69.8,114.5 70.4,114.966667 70.4,115.9 L70.4,115.9 L70.4,153.1 C70.4,154.7 71.1333333,155.5 72.6,155.5 L72.6,155.5 L82.8,155.5 Z M68,102.5 L16.2,102.5 C14.8666667,102.5 14.2,102.1 14.2,101.3 C14.2,100.9 14.4,100.433333 14.8,99.9 L14.8,99.9 L67,29.3 C67.8,28.1 68.4666667,27.5 69,27.5 C69.5333333,27.5 69.8,28.3666667 69.8,30.1 L69.8,30.1 L69.8,101.1 C69.8,101.5 69.6333333,101.833333 69.3,102.1 C68.9666667,102.366667 68.5333333,102.5 68,102.5 L68,102.5 Z" id="44" fill="#0F56B2"></path>
                <path d="M382.4,7.1 L382.587146,7.10415879 C383.929049,7.16515438 384.6,7.89710145 384.6,9.3 L384.6,9.3 L384.6,100.9 L384.604321,101.07284 C384.653292,102.02428 385.118519,102.5 386,102.5 L386,102.5 L405.6,102.5 L405.804159,102.503403 C407.268053,102.553308 408,103.152174 408,104.3 L408,104.3 L408,112.1 L407.99584,112.28816 C407.92928,113.76272 407.064,114.5 405.4,114.5 L405.4,114.5 L386.2,114.5 L386.044,114.505 C385.081333,114.568333 384.6,115.233333 384.6,116.5 L384.6,116.5 L384.6,153.1 L384.595858,153.281065 C384.526824,154.760355 383.594872,155.5 381.8,155.5 L381.8,155.5 L371.6,155.5 L371.420486,155.495833 C370.073495,155.431944 369.4,154.633333 369.4,153.1 L369.4,153.1 L369.4,115.9 L369.394444,115.748765 C369.331481,114.916255 368.733333,114.5 367.6,114.5 L367.6,114.5 L301.6,114.5 L301.39616,114.49616 C299.79872,114.43472 299,113.636 299,112.1 L299,112.1 L299,103.5 L299.005372,103.297521 C299.080579,101.86281 299.945455,100.063636 301.6,97.9 L301.6,97.9 L367.8,8.7 L367.968858,8.51730104 C368.89158,7.57243368 370.168627,7.1 371.8,7.1 L371.8,7.1 L382.4,7.1 Z M368,27.5 C367.466667,27.5 366.8,28.1 366,29.3 L366,29.3 L313.8,99.9 L313.674074,100.075309 C313.358025,100.536214 313.2,100.944444 313.2,101.3 C313.2,102.1 313.866667,102.5 315.2,102.5 L315.2,102.5 L367,102.5 C367.533333,102.5 367.966667,102.366667 368.3,102.1 C368.633333,101.833333 368.8,101.5 368.8,101.1 L368.8,101.1 L368.8,30.1 L368.798186,29.8582766 C368.773998,28.2860922 368.507937,27.5 368,27.5 Z" id="Combined-Shape" fill="#0F56B2"></path>
                <g id="travel" transform="translate(125.000000, 0.000000)">
                    <path d="M17.8678199,91.2207086 C17.2908837,87.5139971 17.0014032,83.7682423 17.0019653,80.0169184 C17.0019653,44.6428387 42.448409,15.1046737 76,8.7248216 L75.798664,7.5 C37.0612971,8.97286585 6,40.9337247 6,80.0169184 C6,83.7682423 6.28891921,87.5139971 6.86585542,91.2207086 L20.1276234,94.3682856 C21.4792552,94.6897673 22.9038836,94.4164332 24.0404721,93.617553 L25.0306489,92.9212692 L17.8678199,91.2207086 Z" id="Path" fill="#DDECF0"></path>
                    <path d="M74.1960143,90.3285759 C72.3271533,86.1705917 68.3151941,83.5097037 63.9002156,83.5 L53,83.5 C57.4149785,83.5097037 61.4269376,86.1705917 63.2957987,90.3285759 L66.548423,97.604723 C67.2619629,99.2016298 68.7305682,100.291014 70.4153183,100.473114 C72.1000685,100.655214 73.7528608,99.9032134 74.7671856,98.4930667 C75.2145507,97.8700604 75.516779,97.1476629 75.6501031,96.3826838 L76,94.3640813 L74.1960143,90.3285759 Z" id="Path" fill="#DDECF0"></path>
                    <path d="M67.7938942,60.2174365 C68.0844289,61.7154169 69.0678279,62.9890924 70.4470847,63.6537871 L79.3664726,67.9295891 C83.9783759,70.1529608 86.5439523,75.1574698 85.6469137,80.1804517 L82.3971251,98.1503836 C81.7821401,101.532773 79.6677426,104.458585 76.6420628,106.11399 C77.973408,106.833843 79.4349446,107.283611 80.9420612,107.437257 C81.3450111,107.478969 81.7498578,107.5 82.1549797,107.5 C85.7450451,107.505908 89.124641,105.814163 91.261181,102.941638 C92.3215472,101.526784 93.0378974,99.8863595 93.3539309,98.1492927 L96.6037196,80.1793608 C97.5007582,75.1563789 94.9351818,70.1518699 90.3232784,67.9284982 L81.4038906,63.6526962 C80.0246338,62.9880015 79.0412347,61.714326 78.7507001,60.2163456 L77.0441776,51.3183793 C76.6718445,49.401519 77.5027301,47.4511081 79.1456929,46.3853071 L91.8402482,38.1086112 C95.6164393,35.6437629 97.5796498,31.1952849 96.849152,26.7588361 L93.9116324,8.97708531 C90.2228227,8.19387443 86.4779853,7.69999754 82.7115854,7.5 L85.892894,26.7593815 C86.6233918,31.1958303 84.6601812,35.6443083 80.8839902,38.1091567 L68.1894349,46.3858526 C66.546472,47.4516536 65.7155865,49.4020645 66.0879195,51.3189248 L67.7938942,60.2174365 Z" id="Path" fill="#DDECF0"></path>
                    <path d="M20.6436118,101.220022 C20.1409112,101.170197 19.6420296,101.085979 19.1503104,100.967931 L9,98.5 C17.0655702,130.106804 45.1839669,153.5 78.5392659,153.5 C80.3760302,153.5 82.1962749,153.429169 84,153.287507 C54.4272674,150.946483 29.2795581,130.279617 20.6436118,101.220022 Z" id="Path" fill="#DDECF0"></path>
                    <path d="M30.5059496,100.198211 C33.777757,100.935676 37.2250881,100.307097 39.9778275,98.4711295 L49.1358577,92.3587209 C49.9743038,91.7979563 50.9748949,91.4979649 52,91.5 L40.710515,91.5 C39.68541,91.4979649 38.6848189,91.7979563 37.8463727,92.3587209 L28.6883425,98.4711295 C28.1537071,98.8267576 27.5889937,99.1396476 27,99.4065873 L30.5059496,100.198211 Z" id="Path" fill="#DDECF0"></path>
                    <path d="M134.200133,118.822157 C133.854065,115.735996 134.949604,112.662376 137.172633,110.48258 L140.350575,107.351362 C142.649759,105.088181 144.247299,102.215708 144.953245,99.0754835 L148.598302,82.9014899 C150.008547,76.558824 147.641259,69.9731983 142.50799,65.9586776 C139.304906,63.4683322 137.886552,59.3283 138.894111,55.4101319 L140.697988,48.3993704 C141.100378,46.8512345 141.863272,45.4190181 142.924997,44.2185038 C141.823184,42.257684 140.642313,40.3450539 139.371247,38.5 L133.539268,42.6293535 C131.570218,44.0253195 130.160925,46.0691913 129.560716,48.3993704 L127.756839,55.4101319 C126.74928,59.3283 128.167634,63.4683322 131.370718,65.9586776 C136.503988,69.9731983 138.871276,76.558824 137.461031,82.9014899 L133.815974,99.0754835 C133.110027,102.215708 131.512487,105.088181 129.213303,107.351362 L126.035361,110.48258 C123.812332,112.662376 122.716793,115.735996 123.062861,118.822157 L125.002029,136.5 C128.660623,133.542314 132.027329,130.244207 135.056418,126.650481 L134.200133,118.822157 Z" id="Path" fill="#DDECF0"></path>
                    <path d="M79,0.5 C35.4391498,0.5 0,36.163572 0,79.9997239 C0,123.835876 35.4391498,159.5 79,159.5 C122.56085,159.5 158,123.836428 158,79.9997239 C158,36.1630198 122.56085,0.5 79,0.5 Z M76.2144762,7.18595334 L79.5844332,27.8070968 C79.8945555,29.7113637 79.060927,31.6207658 77.4574257,32.6789462 L64.740928,41.0586154 C60.8595356,43.6048916 58.8966327,48.2626873 59.7757155,52.8406271 L61.4851139,61.8487439 C62.1712534,65.4265545 64.4949489,68.4686989 67.7541887,70.0561147 L76.6886079,74.3851135 C78.6469805,75.3393093 79.7364533,77.4871606 79.3555988,79.6429777 L76.1003334,97.8364801 C75.9660913,98.5821409 75.6617819,99.2862956 75.2113365,99.893569 C74.1900274,101.268105 72.5258545,102.001115 70.8295037,101.823614 C69.1331529,101.646112 67.6544353,100.584239 66.9359822,99.0276588 L63.6609614,91.9352578 C61.779232,87.8822761 57.7396478,85.288584 53.2942692,85.2791254 L40.0531537,85.2791254 C37.7021393,85.2754229 35.4077369,86.004874 33.4855515,87.3671397 L24.581863,93.6576902 C23.4480322,94.4598406 22.0268602,94.7342936 20.6785079,94.4114959 L7.44891637,91.2510341 C6.87337995,87.5291491 6.58516173,83.7680607 6.58516173,80.0013806 C6.58516173,40.7565409 37.5710961,8.66484845 76.2144762,7.18595334 L76.2144762,7.18595334 Z M8.92948041,98.4157784 L19.1573354,100.859434 C22.3380804,101.618259 25.6894638,100.971474 28.3655877,99.0823304 L37.2687274,92.7928845 C38.0838376,92.2158781 39.0565798,91.9071979 40.0531537,91.9093026 L53.2942692,91.9093026 C55.1789578,91.913216 56.8916233,93.0128716 57.6893165,94.7312421 L60.9637886,101.823643 C62.6440572,105.507459 66.1402862,108.017637 70.148444,108.417925 C70.5520729,108.460155 70.9576019,108.481353 71.3634065,108.481432 C74.9595222,108.487429 78.3448135,106.774637 80.4849542,103.866374 C81.5471073,102.433917 82.2646647,100.773083 82.5812309,99.0144051 L85.8364962,80.8209028 C86.7350466,75.7354281 84.1651465,70.6686562 79.545471,68.4176227 L70.6110517,64.0886239 C69.2294704,63.4156595 68.2444141,62.1261377 67.9533898,60.6095204 L66.2439914,51.6008513 C65.8710309,49.6601426 66.7033167,47.685466 68.3490483,46.6064049 L81.0649972,38.2267356 C84.8475521,35.7312212 86.8140712,31.2273981 86.0823423,26.7357538 L82.8962212,7.23234139 C103.089325,8.32740586 121.904536,17.8803017 134.778522,33.574125 L129.181134,37.5855866 C125.973989,39.8863463 123.678425,43.2540856 122.700236,47.0934794 L120.922242,54.083164 C119.280635,60.539183 121.591005,67.360947 126.808829,71.4643233 C129.870184,73.8861652 131.282013,77.8589102 130.441095,81.6851562 L126.84834,97.8105248 C126.427624,99.7046709 125.475281,101.43741 124.104522,102.802762 L120.971631,105.924567 C117.349822,109.516373 115.565271,114.581518 116.12989,119.667026 L118.45116,141.075662 C106.721913,148.788046 93.0110542,152.888141 79,152.873177 C45.3898791,152.873177 17.0566685,129.710038 8.92948041,98.4141217 L8.92948041,98.4157784 Z M124.585788,136.576574 L122.674444,118.95022 C122.333342,115.873337 123.413161,112.808958 125.604293,110.635715 L128.736635,107.51391 C131.002829,105.257534 132.577446,102.393696 133.273263,99.2629125 L136.866018,83.1375439 C138.256028,76.8139464 135.922708,70.2481195 130.863094,66.2456681 C127.705971,63.7628095 126.307968,59.6352238 127.30107,55.7288352 L129.079064,48.7391506 C129.670659,46.4159769 131.059732,44.3782498 133.000528,42.9864806 L138.744985,38.8695414 C160.071599,70.1695987 153.907527,112.708729 124.586885,136.576574 L124.585788,136.576574 Z" id="Shape" fill="#00807D"></path>
                </g>
            </g>
        </g>
    </g>
</svg>