<?xml version="1.0" encoding="UTF-8"?>
<svg width="18px" height="20px" viewBox="0 0 18 20" version="1.1" xmlns="http://www.w3.org/2000/svg" xmlns:xlink="http://www.w3.org/1999/xlink">
    <title>90AA9903-1A6B-4BBD-A448-4E16EC35DE97@2x</title>
    <g id="Design" stroke="none" stroke-width="1" fill="none" fill-rule="evenodd">
        <g id="My-Profile--Design" transform="translate(-27.000000, -179.000000)" fill="#191919" fill-rule="nonzero">
            <g id="Side_Nav_item-Hover-Copy" transform="translate(0.000000, 163.000000)">
                <g id="My-Profile-Icon" transform="translate(27.906574, 16.000000)">
                    <g id="Blog" transform="translate(0.993080, 0.000000)">
                        <path d="M2.98961938,0.25 L12.9550173,0.25 C14.4685451,0.25 15.6955017,1.48121694 15.6955017,3 L15.6955017,17 C15.6955017,18.5187831 14.4685451,19.75 12.9550173,19.75 L2.98961938,19.75 C1.47609162,19.75 0.249134948,18.5187831 0.249134948,17 L0.249134948,3 C0.249134948,1.48121694 1.47609162,0.25 2.98961938,0.25 Z M2.98961938,1.75 C2.30165221,1.75 1.74394464,2.30964406 1.74394464,3 L1.74394464,17 C1.74394464,17.6903559 2.30165221,18.25 2.98961938,18.25 L12.9550173,18.25 C13.6429845,18.25 14.200692,17.6903559 14.200692,17 L14.200692,3 C14.200692,2.30964406 13.6429845,1.75 12.9550173,1.75 L2.98961938,1.75 Z" id="Rectangle"></path>
                        <path d="M6.98565893,10.443 L3.97627878,10.443 C3.43133072,10.443 2.98961938,10.8283867 2.98961938,11.30375 C2.98961938,11.7791562 3.43137997,12.1645 3.97627878,12.1645 L6.98565893,12.1645 C7.530607,12.1645 7.97231834,11.7791133 7.97231834,11.30375 C7.97231834,10.8283438 7.530607,10.443 6.98565893,10.443 Z" id="Path"></path>
                        <path d="M11.8835258,7.2215 L4.06119656,7.2215 C3.46937067,7.2215 2.9896622,7.60688672 2.9896622,8.08225 C2.9896622,8.55765625 3.46942416,8.943 4.06119656,8.943 L11.8835258,8.943 C12.4753516,8.943 12.9550601,8.55761328 12.9550601,8.08225 C12.9550601,7.60688672 12.4753516,7.2215 11.8835258,7.2215 Z" id="Path"></path>
                        <path d="M11.883478,4 L11.6632027,4 L4.06119081,4 C3.4693681,4 2.9896622,4.38538672 2.9896622,4.86075 C2.9896622,5.33611328 3.46942159,5.7215 4.06119081,5.7215 L11.6632562,5.7215 L11.8835315,5.7215 C12.4753542,5.7215 12.9550601,5.33611328 12.9550601,4.86075 C12.9550601,4.38538672 12.4753007,4 11.883478,4 Z" id="Path"></path>
                    </g>
                </g>
            </g>
        </g>
    </g>
</svg>