<?xml version="1.0" encoding="UTF-8"?>
<svg width="14px" height="19px" viewBox="0 0 14 19" version="1.1" xmlns="http://www.w3.org/2000/svg" xmlns:xlink="http://www.w3.org/1999/xlink">
    <title>E591D7C1-A707-4CF0-948A-7440BCFC57CB@2x</title>
    <g id="Design" stroke="none" stroke-width="1" fill="none" fill-rule="evenodd">
        <g id="Bookmarks--Design" transform="translate(-30.000000, -231.000000)" fill="#FFFFFF" fill-rule="nonzero" stroke="#FFFFFF" stroke-width="0.2">
            <g id="Side_Nav_item-Hover-Copy-5" transform="translate(0.000000, 215.000000)">
                <g id="My-Profile-Icon" transform="translate(29.996275, 16.000000)">
                    <g id="Bookmark" transform="translate(7.174272, 9.500000) scale(-1, 1) translate(-7.174272, -9.500000) translate(0.675169, 0.000000)">
                        <path d="M11.5418208,0.9 C12.2147191,0.9 12.761996,1.44737591 12.761996,2.12037838 L12.761996,18.0969073 C12.761996,18.3764215 12.6109561,18.6340874 12.367289,18.7704831 C12.1235015,18.9074478 11.8245977,18.9015354 11.5863289,18.7551061 L6.83840202,15.844257 L2.08968161,18.7764676 C1.96704407,18.8521321 1.82680168,18.8915058 1.68387193,18.8915058 C1.55263253,18.8915058 1.42336184,18.8582062 1.30782918,18.7936975 C1.06328832,18.6572372 0.911758378,18.3992848 0.911758378,18.1192857 L0.911758378,2.12037838 C0.911758378,1.44738156 1.45906443,0.9 2.13196841,0.9 L11.5418208,0.9 Z M11.262203,2.4 L2.41155146,2.4 L2.41155146,16.8148744 L6.83559469,14.0831434 L7.62222074,14.5654065 L11.262203,16.797 L11.262203,2.4 Z" id="Path"></path>
                    </g>
                </g>
            </g>
        </g>
    </g>
</svg>