<?xml version="1.0" encoding="UTF-8"?>
<svg width="16px" height="16px" viewBox="0 0 16 16" version="1.1" xmlns="http://www.w3.org/2000/svg" xmlns:xlink="http://www.w3.org/1999/xlink">
    <title>1ACEC78C-5B95-4411-B3C4-4F7E8EFDEFD0</title>
    <g id="Components" stroke="none" stroke-width="1" fill="none" fill-rule="evenodd">
        <g id="Icons" transform="translate(-562.000000, -3274.000000)">
            <g id="icon-/-nav-/-down-arrow" transform="translate(562.000000, 3274.000000)">
                <rect id="Rectangle" fill-opacity="0.01" fill="#FFFFFF" x="0" y="0" width="16" height="16"></rect>
                <polygon id="Path" fill="#1A1A1A" fill-rule="nonzero" transform="translate(8.000000, 7.641527) rotate(-270.000000) translate(-8.000000, -7.641527) " points="12 7.64152714 5.35847286 1 4 2.35847286 9.28305428 7.64152714 4 12.9245814 5.35847286 14.2830543"></polygon>
            </g>
        </g>
    </g>
</svg>