<?xml version="1.0" encoding="UTF-8"?>
<svg width="36px" height="36px" viewBox="0 0 36 36" version="1.1" xmlns="http://www.w3.org/2000/svg" xmlns:xlink="http://www.w3.org/1999/xlink">
    <title>24E0FAFC-8F37-4210-81F3-3CD5A51D2FFD</title>
    <g id="Design" stroke="none" stroke-width="1" fill="none" fill-rule="evenodd">
        <g id="Style-Sheet" transform="translate(-592.000000, -1135.000000)">
            <g id="Group-5" transform="translate(157.000000, 954.000000)">
                <g id="mail-copy-2" transform="translate(437.000000, 183.000000)">
                    <circle id="Oval-Copy-2" stroke="#E6E6ED" stroke-width="2" cx="16" cy="16" r="17"></circle>
                    <g id="mail-(1)" transform="translate(7.000000, 9.000000)" fill="#000000" fill-rule="nonzero">
                        <path d="M8.34884838,6.84724888 C8.83224272,7.16952383 9.68043365,7.16955998 10.1639365,6.84721272 C10.1640088,6.84717656 10.1641173,6.84710425 10.1641896,6.84706809 L18.4032989,1.3542924 C18.1330551,0.572704242 17.3902281,0.00965414689 16.5179561,0.00965414689 L1.99468415,0.00965414689 C1.12237593,0.00965414689 0.379585146,0.572704242 0.109305191,1.3542924 L8.34859527,6.84710425 C8.34870375,6.84717656 8.34877606,6.84717656 8.34884838,6.84724888 Z" id="Path"></path>
                        <path d="M10.7658563,7.74964043 C10.7657478,7.74971274 10.7656755,7.74978506 10.7656031,7.74982122 C10.3424839,8.03188863 9.79932067,8.17294042 9.25633818,8.17294042 C8.71324722,8.17294042 8.1703009,8.03192479 7.74714554,7.74978506 C7.74707322,7.7497489 7.74703706,7.74971274 7.74696475,7.74967659 L0,2.58506958 L0,11.8802413 C0,12.9800547 0.894798401,13.874817 1.99468415,13.874817 L16.5180645,13.874817 C17.6179141,13.874817 18.5126764,12.9800547 18.5126764,11.8802413 L18.5126764,2.58506958 L10.7658563,7.74964043 Z" id="Path"></path>
                    </g>
                </g>
            </g>
        </g>
    </g>
</svg>