<?xml version="1.0" encoding="UTF-8"?>
<svg width="33px" height="33px" viewBox="0 0 33 33" version="1.1" xmlns="http://www.w3.org/2000/svg" xmlns:xlink="http://www.w3.org/1999/xlink">
    <title>2F2EC37A-E90F-4CD8-8850-B6AFD2CBC3A0</title>
    <g id="Design" stroke="none" stroke-width="1" fill="none" fill-rule="evenodd">
        <g id="Share-popup" transform="translate(-134.000000, -63.000000)">
            <g id="Linked-In" transform="translate(134.000000, 63.000000)">
                <circle id="Oval-Copy-9" fill="#0E76A8" cx="16.5" cy="16.5" r="16.5"></circle>
                <g id="linkedin-(1)" transform="translate(9.000000, 8.000000)" fill="#FFFFFF" fill-rule="nonzero">
                    <path d="M14.99625,15 L14.99625,14.999375 L15,14.999375 L15,9.498125 C15,6.806875 14.420625,4.73375 11.274375,4.73375 C9.761875,4.73375 8.746875,5.56375 8.3325,6.350625 L8.28875,6.350625 L8.28875,4.985 L5.305625,4.985 L5.305625,14.999375 L8.411875,14.999375 L8.411875,10.040625 C8.411875,8.735 8.659375,7.4725 10.27625,7.4725 C11.869375,7.4725 11.893125,8.9625 11.893125,10.124375 L11.893125,15 L14.99625,15 Z" id="Path"></path>
                    <polygon id="Path" points="0.2475 4.985625 3.3575 4.985625 3.3575 15 0.2475 15"></polygon>
                    <path d="M1.80125,0 C0.806875,0 0,0.806875 0,1.80125 C0,2.795625 0.806875,3.619375 1.80125,3.619375 C2.795625,3.619375 3.6025,2.795625 3.6025,1.80125 C3.601875,0.806875 2.795,0 1.80125,0 Z" id="Path"></path>
                </g>
            </g>
        </g>
    </g>
</svg>