<?xml version="1.0" encoding="UTF-8"?>
<svg width="20px" height="18px" viewBox="0 0 20 18" version="1.1" xmlns="http://www.w3.org/2000/svg" xmlns:xlink="http://www.w3.org/1999/xlink">
    <title>B5B14D76-C421-42FE-94EA-D90540E1582F</title>
    <g id="CMS-Wireframe" stroke="none" stroke-width="1" fill="none" fill-rule="evenodd">
        <g id="Dashboard---Design" transform="translate(-35.000000, -412.000000)">
            <g id="Tab/Static-Copy-6" transform="translate(0.000000, 395.000000)">
                <g id="icon" transform="translate(36.857692, 17.000000)">
                    <rect id="Rectangle" fill="#001A3B" opacity="0" x="0" y="0" width="17.9307692" height="18"></rect>
                    <g id="icons/dashboard" fill="#FFFFFF" fill-rule="nonzero" stroke="#FFFFFF" stroke-width="0.2">
                        <g id="graph" transform="translate(0.000000, 3.000000)">
                            <path d="M17.8382143,0.492631579 C17.7998711,0.399789474 17.7442263,0.31677193 17.6750548,0.247298246 C17.6705459,0.24277193 17.666037,0.242 17.6622621,0.238245614 C17.5945935,0.174070175 17.5171382,0.120491228 17.429931,0.084245614 C17.3584876,0.0548070175 17.2833042,0.045754386 17.2081208,0.0389473684 C17.1855762,0.0374385965 17.1667717,0.026877193 17.1441922,0.026877193 L11.1287861,0.026877193 C10.712988,0.026877193 10.3768472,0.364280702 10.3768472,0.781719298 C10.3768472,1.19915789 10.712953,1.5365614 11.1287861,1.5365614 L15.3365749,1.5365614 L9.38429352,7.54575439 L7.11949406,4.63512281 C6.98866586,4.46680702 6.79390904,4.36263158 6.58338853,4.34677193 C6.36458421,4.33091228 6.16304656,4.40564912 6.00967382,4.55133333 L0.234882591,10.0397193 C-0.0666549258,10.3265614 -0.0794126856,10.8043509 0.20555722,11.1070526 C0.354456005,11.2632982 0.552952767,11.3417895 0.752218489,11.3417895 C0.93795749,11.3417895 1.12366154,11.2730877 1.26878543,11.1357193 L6.44277355,6.218 L8.72337166,9.14898246 C8.85647179,9.32031579 9.05573752,9.42526316 9.2715359,9.43807018 C9.48733428,9.45014035 9.69712078,9.37014035 9.84975951,9.21691228 L16.3922533,2.61140351 L16.3922533,6.82035088 C16.3922533,7.23775439 16.7283591,7.57519298 17.1441922,7.57519298 C17.5599903,7.57519298 17.896131,7.23778947 17.896131,6.82035088 L17.896131,0.781754386 L17.896131,0.780982456 C17.8953621,0.682105263 17.8757885,0.584736842 17.8382143,0.492631579 Z" id="Path"></path>
                        </g>
                    </g>
                </g>
            </g>
        </g>
    </g>
</svg>