<?xml version="1.0" encoding="UTF-8"?>
<svg width="18px" height="17px" viewBox="0 0 18 17" version="1.1" xmlns="http://www.w3.org/2000/svg" xmlns:xlink="http://www.w3.org/1999/xlink">
    <title>3F9E9045-B834-4836-A74F-E39B6F82334E@2x</title>
    <g id="Design" stroke="none" stroke-width="1" fill="none" fill-rule="evenodd">
        <g id="My-Profile--Design" transform="translate(-27.000000, -285.000000)" fill="#191919" fill-rule="nonzero">
            <g id="Side_Nav_item-Hover-Copy-2" transform="translate(0.000000, 267.000000)">
                <g id="My-Profile-Icon" transform="translate(26.906574, 16.000000)">
                    <g id="Notification" transform="translate(1.993080, 2.000000)">
                        <path d="M13.1308773,6.96470588 L13.1308773,5.64705882 C13.1308773,2.54117647 10.5984938,0 7.50335844,0 C4.40822308,0 1.87583961,2.54117647 1.87583961,5.64705882 L1.87583961,6.96470588 C1.87583961,9.03529412 1.31308773,11.0117647 0.187583961,12.7058824 C-4.25007252e-14,12.9882353 -4.25007252e-14,13.3647059 0.187583961,13.6470588 C0.281375941,13.9294118 0.562751883,14.1176471 0.937919805,14.1176471 L3.8454712,14.1176471 C4.22063912,15.7176471 5.72131081,16.9411765 7.50335844,16.9411765 C9.28540607,16.9411765 10.6922858,15.7176471 11.1612457,14.1176471 L14.0687971,14.1176471 C14.443965,14.1176471 14.7253409,13.9294118 14.9129249,13.6470588 C15.1005089,13.3647059 15.1005089,12.9882353 14.9129249,12.7058824 C13.6936291,10.9176471 13.1308773,9.03529412 13.1308773,6.96470588 Z M7.50335844,15.0588235 C6.84681457,15.0588235 6.19027071,14.6823529 5.90889477,14.1176471 L9.0978221,14.1176471 C8.81644616,14.6823529 8.1599023,15.0588235 7.50335844,15.0588235 Z M2.53238347,12.2352941 C3.3765113,10.6352941 3.75167922,8.84705882 3.75167922,6.96470588 L3.75167922,5.64705882 C3.75167922,3.57647059 5.43993487,1.88235294 7.50335844,1.88235294 C9.56678201,1.88235294 11.2550377,3.57647059 11.2550377,5.64705882 L11.2550377,6.96470588 C11.2550377,8.84705882 11.6302056,10.6352941 12.4743334,12.2352941 L2.53238347,12.2352941 Z" id="Shape"></path>
                    </g>
                </g>
            </g>
        </g>
    </g>
</svg>