<?xml version="1.0" encoding="UTF-8"?>
<svg width="22px" height="18px" viewBox="0 0 22 18" version="1.1" xmlns="http://www.w3.org/2000/svg" xmlns:xlink="http://www.w3.org/1999/xlink">
    <title>5A654BB6-6391-469F-917B-030A593C266E</title>
    <g id="Design" stroke="none" stroke-width="1" fill="none" fill-rule="evenodd">
        <g id="Homepage-Final" transform="translate(-1244.000000, -3744.000000)" fill="#000000" fill-rule="nonzero">
            <g id="Footer" transform="translate(0.000000, 3383.000000)">
                <g id="twitter-(1)" transform="translate(1244.000000, 361.000000)">
                    <path d="M19.2333595,4.46881541 C20.105086,3.83402813 20.8383723,3.04168903 21.435898,2.12935407 L21.435898,2.12843807 C20.638304,2.48659367 19.7897997,2.72475339 18.9037825,2.84016926 C19.8148082,2.2823259 20.5105817,1.4057149 20.8374792,0.349568101 C19.9880817,0.868939509 19.0502612,1.23533909 18.0508124,1.44052286 C17.2442868,0.559331862 16.0947867,0.0143124837 14.8407867,0.0143124837 C12.4078123,0.0143124837 10.4491071,2.03958617 10.4491071,4.52194334 C10.4491071,4.87918294 10.4785815,5.22268255 10.5509276,5.54969417 C6.89789334,5.36649438 3.6646454,3.57113643 1.4924744,0.835047548 C1.11377353,1.51013878 0.890482929,2.2823259 0.890482929,3.11313695 C0.890482929,4.67399917 1.67378637,6.05715759 2.84293597,6.85865668 C2.1364445,6.8449167 1.44424363,6.63423694 0.85743592,6.30356131 L0.85743592,6.35302526 C0.85743592,8.54317876 2.38027784,10.3623527 4.37828217,10.7818802 C4.02012404,10.8826401 3.63070522,10.930272 3.22610265,10.930272 C2.94475649,10.930272 2.66073084,10.9137841 2.39456844,10.8533281 C2.9635129,12.6376941 4.58013687,13.9503206 6.50043607,13.9933725 C5.00528218,15.1924152 3.10641889,15.9151384 1.05125216,15.9151384 C0.691307711,15.9151384 0.345653855,15.8986504 0,15.8537664 C1.94709407,17.140745 4.25323943,17.8762921 6.74158992,17.8762921 C14.4969192,17.8762921 19.5513253,11.2407957 19.2333595,4.46881541 Z" id="Path"></path>
                </g>
            </g>
        </g>
    </g>
</svg>