<?xml version="1.0" encoding="UTF-8"?>
<svg width="10px" height="16px" viewBox="0 0 10 16" version="1.1" xmlns="http://www.w3.org/2000/svg" xmlns:xlink="http://www.w3.org/1999/xlink">
    <title>E58570A5-CCF9-40EC-94EF-CDE855934F45</title>
    <g id="Design" stroke="none" stroke-width="1" fill="none" fill-rule="evenodd">
        <g id="Article-Detail-Page--Design" transform="translate(-41.000000, -29.000000)" stroke="#1A1A1A" stroke-width="2">
            <g id="Progress-Bar" transform="translate(2.000000, 0.000000)">
                <polyline id="back" transform="translate(48.000000, 37.000000) rotate(-315.000000) translate(-48.000000, -37.000000) " points="53 42 43 42 43 32 43 32"></polyline>
            </g>
        </g>
    </g>
</svg>