<?xml version="1.0" encoding="UTF-8"?>
<svg width="32px" height="32px" viewBox="0 0 32 32" version="1.1" xmlns="http://www.w3.org/2000/svg" xmlns:xlink="http://www.w3.org/1999/xlink">
    <title>EB2C13A7-E1C8-4FC8-8ACF-AE5A808CCB47@2x</title>
    <g id="Design" stroke="none" stroke-width="1" fill="none" fill-rule="evenodd">
        <g id="Article-Detail-Page--Design" transform="translate(-1327.000000, -16.000000)">
            <g id="Progress-Bar" transform="translate(2.000000, 0.000000)">
                <g id="bookmark" transform="translate(1325.000000, 16.000000)">
                    <circle id="Oval-Copy-2" fill="#E6E6ED" cx="16" cy="16" r="16"></circle>
                    <path d="M21.3490798,24.1979004 C21.1841825,24.1979004 21.0234829,24.126251 20.9129278,23.9952548 L15.9596198,18.1223726 L11.0063118,23.9952548 C10.8519087,24.178403 10.5994981,24.2453384 10.3746008,24.1633004 C10.1496578,24.0810798 10,23.8670875 10,23.6275894 L10,9.57034221 C10,9.25537643 10.2553764,9 10.5703422,9 L21.3488973,9 C21.6638175,9 21.9192395,9.25537643 21.9192395,9.57034221 L21.9192395,23.6274981 C21.9192395,23.8669962 21.7695817,24.0809886 21.5446388,24.1632091 C21.4806692,24.1865703 21.4145095,24.1979004 21.3490798,24.1979004 Z" id="Shape" fill="#1A1A1A" fill-rule="nonzero"></path>
                </g>
            </g>
        </g>
    </g>
</svg>