<?xml version="1.0" encoding="UTF-8"?>
<svg width="32px" height="32px" viewBox="0 0 32 32" version="1.1" xmlns="http://www.w3.org/2000/svg" xmlns:xlink="http://www.w3.org/1999/xlink">
    <title>C50695FF-5F85-414B-B653-3171D3A3FDA5</title>
    <g id="Design" stroke="none" stroke-width="1" fill="none" fill-rule="evenodd">
        <g id="Article-Detail-Page--Design" transform="translate(-185.000000, -510.000000)">
            <g id="twitter" transform="translate(185.000000, 510.000000)">
                <circle id="Oval-Copy" fill="#E6E6ED" cx="16" cy="16" r="16"></circle>
                <g id="twitter-(1)" transform="translate(7.000000, 9.000000)" fill="#000000" fill-rule="nonzero">
                    <path d="M16.6106286,3.76321297 C17.3634834,3.22865527 17.9967761,2.56142234 18.512821,1.79314027 L18.512821,1.7923689 C17.8239898,2.09397361 17.0911906,2.29452917 16.325994,2.39172148 C17.1127889,1.92195865 17.7136842,1.18375991 17.9960047,0.294373138 C17.2624342,0.731738534 16.4524983,1.04028555 15.589338,1.21307188 C14.8927931,0.471016305 13.9000431,0.0120526178 12.8170431,0.0120526178 C10.7158379,0.0120526178 9.02422887,1.71754625 9.02422887,3.80795229 C9.02422887,4.10878563 9.049684,4.39804846 9.11216477,4.67342667 C5.95727152,4.51915316 3.16492102,3.00727278 1.28895516,0.703197935 C0.961895324,1.27169581 0.769053439,1.92195865 0.769053439,2.62158901 C0.769053439,3.9359993 1.44554277,5.10076429 2.45526289,5.77571089 C1.84511116,5.76414038 1.24730131,5.58672584 0.74051284,5.30826216 L0.74051284,5.34991601 C0.74051284,7.1942558 2.0556945,8.72619174 3.78124369,9.07947807 C3.47192531,9.1643285 3.13560906,9.20443961 2.78617956,9.20443961 C2.54319878,9.20443961 2.29790391,9.190555 2.06803638,9.13964474 C2.5593975,10.6422687 3.95557275,11.7476384 5.61401297,11.7838927 C4.3227437,12.7936128 2.68281631,13.4022218 0.907899597,13.4022218 C0.597038477,13.4022218 0.298519239,13.3883372 0,13.3505401 C1.68158124,14.4343115 3.67325223,15.0537197 5.8222822,15.0537197 C12.5200666,15.0537197 16.8852355,9.46593321 16.6106286,3.76321297 Z" id="Path"></path>
                </g>
            </g>
        </g>
    </g>
</svg>