<?xml version="1.0" encoding="UTF-8"?>
<svg width="16px" height="20px" viewBox="0 0 16 20" version="1.1" xmlns="http://www.w3.org/2000/svg" xmlns:xlink="http://www.w3.org/1999/xlink">
    <title>55D6AC41-1F9E-4AEA-A3BD-726612A1D319@2x</title>
    <g id="Design" stroke="none" stroke-width="1" fill="none" fill-rule="evenodd">
        <g id="My-Articles--Design" transform="translate(-29.000000, -179.000000)" fill="#FFFFFF" fill-rule="nonzero" stroke="#FFFFFF" stroke-width="0.2">
            <g id="Side_Nav_item-Hover-Copy" transform="translate(0.000000, 163.000000)">
                <g id="My-Profile-Icon" transform="translate(28.996275, 16.000000)">
                    <g id="Blog" transform="translate(-0.000276, 0.000000)">
                        <path d="M2.99958616,0.25 L12.9982067,0.25 C14.5167802,0.25 15.7478273,1.48121694 15.7478273,3 L15.7478273,17 C15.7478273,18.5187831 14.5167802,19.75 12.9982067,19.75 L2.99958616,19.75 C1.48101261,19.75 0.249965513,18.5187831 0.249965513,17 L0.249965513,3 C0.249965513,1.48121694 1.48101261,0.25 2.99958616,0.25 Z M2.99958616,1.75 C2.30932545,1.75 1.74975859,2.30964406 1.74975859,3 L1.74975859,17 C1.74975859,17.6903559 2.30932545,18.25 2.99958616,18.25 L12.9982067,18.25 C13.6884674,18.25 14.2480343,17.6903559 14.2480343,17 L14.2480343,3 C14.2480343,2.30964406 13.6884674,1.75 12.9982067,1.75 L2.99958616,1.75 Z" id="Rectangle"></path>
                        <path d="M7.0089477,10.443 L3.98953489,10.443 C3.44277008,10.443 2.99958616,10.8283867 2.99958616,11.30375 C2.99958616,11.7791562 3.44281949,12.1645 3.98953489,12.1645 L7.0089477,12.1645 C7.55571251,12.1645 7.99889643,11.7791133 7.99889643,11.30375 C7.99889643,10.8283438 7.55571251,10.443 7.0089477,10.443 Z" id="Path"></path>
                        <path d="M11.923143,7.2215 L4.07473576,7.2215 C3.48093685,7.2215 2.99962912,7.60688672 2.99962912,8.08225 C2.99962912,8.55765625 3.48099052,8.943 4.07473576,8.943 L11.923143,8.943 C12.5169419,8.943 12.9982497,8.55761328 12.9982497,8.08225 C12.9982497,7.60688672 12.5169419,7.2215 11.923143,7.2215 Z" id="Path"></path>
                        <path d="M11.9230951,4 L11.7020855,4 L4.07472999,4 C3.48093426,4 2.99962912,4.38538672 2.99962912,4.86075 C2.99962912,5.33611328 3.48098793,5.7215 4.07472999,5.7215 L11.7021391,5.7215 L11.9231488,5.7215 C12.5169445,5.7215 12.9982497,5.33611328 12.9982497,4.86075 C12.9982497,4.38538672 12.5168908,4 11.9230951,4 Z" id="Path"></path>
                    </g>
                </g>
            </g>
        </g>
    </g>
</svg>