<?xml version="1.0" encoding="UTF-8"?>
<svg width="24px" height="24px" viewBox="0 0 24 24" version="1.1" xmlns="http://www.w3.org/2000/svg" xmlns:xlink="http://www.w3.org/1999/xlink">
    <title>5A993BDA-4444-4144-ADFC-8081289EB5DF@2x</title>
    <g id="Design" stroke="none" stroke-width="1" fill="none" fill-rule="evenodd">
        <g id="Style-Sheet" transform="translate(-649.000000, -1719.000000)">
            <g id="Group-4" transform="translate(157.000000, 1597.000000)">
                <g id="Search-Copy" transform="translate(492.000000, 122.000000)">
                    <rect id="Rectangle" x="0" y="0" width="24" height="24"></rect>
                    <path d="M16.9027519,15.0644822 C19.3432836,11.618237 18.5270522,6.84619866 15.0808069,4.40625 C11.6345615,1.96630134 6.86252328,2.78194955 4.42257463,6.22877791 C1.98262597,9.67502328 2.79827433,14.4464785 6.24510269,16.8864272 C8.70487403,18.6279151 11.956973,18.7620103 14.5514225,17.2298275 L18.188666,20.8332555 C18.7973415,21.4739972 19.8100513,21.4996501 20.4507928,20.8909748 C21.0915345,20.2828824 21.1171875,19.2701725 20.5090952,18.629431 C20.4962687,18.6158272 19.2941542,17.4275109 16.9027519,15.0644822 Z M10.6579991,15.5868704 C7.93470149,15.5874534 5.72679567,13.3812967 5.72504645,10.6579991 C5.72446358,7.93470149 7.9306203,5.72679567 10.6545009,5.72562924 C13.3743003,5.72446358 15.5810401,7.92712224 15.5862947,10.6469216 C15.5909515,13.3708022 13.3859609,15.5822061 10.6614972,15.5868704 C10.6603312,15.5868704 10.6597481,15.5868704 10.6579991,15.5868704 Z" id="Shape" fill="#00807D" fill-rule="nonzero"></path>
                </g>
            </g>
        </g>
    </g>
</svg>