<?xml version="1.0" encoding="UTF-8"?>
<svg width="98px" height="98px" viewBox="0 0 98 98" version="1.1" xmlns="http://www.w3.org/2000/svg" xmlns:xlink="http://www.w3.org/1999/xlink">
    <title>039F8D0A-65CF-418D-886C-2BB0D0FCCDD6</title>
    <g id="Design" stroke="none" stroke-width="1" fill="none" fill-rule="evenodd">
        <g id="Paymeny-Successful" transform="translate(-671.000000, -241.000000)" fill-rule="nonzero">
            <g id="tick-(2)" transform="translate(671.000000, 241.000000)">
                <path d="M13.367009,56.0700949 C13.367009,30.5063158 34.2370152,9.77494576 59.9717461,9.77494576 C66.1614376,9.77229926 72.2898542,10.9923106 78,13.3661718 C69.6976432,6.64684734 59.3137029,2.98504919 48.6047371,3 C22.8700062,3 2,23.7314159 2,49.295195 C2.0026642,67.9464589 13.2648835,84.7778508 30.5764832,92 C19.677475,83.2155661 13.3528003,70.0124507 13.367009,56.0700949 Z" id="Path" fill="#DDECF0"></path>
                <path d="M49.0050237,0.000138799217 C29.1845401,-0.00328250093 11.3147656,11.9352591 3.73006069,30.2477301 C-3.85375369,48.5602011 0.341472173,69.6380617 14.3605778,83.6493102 C33.4946184,102.783563 64.5163194,102.783563 83.6494695,83.6493102 C102.78351,64.5159475 102.78351,33.4939024 83.6494695,14.3596494 C74.4817615,5.13930952 62.0073748,-0.0308830345 49.0050237,0.000138799217 Z M49.0050237,93.4501504 C24.5031952,93.4501504 4.55984645,73.5065803 4.55984645,49.0044798 C4.55984645,24.5023793 24.5031952,4.55880917 49.0050237,4.55880917 C73.5068522,4.55880917 93.4502009,24.5023793 93.4502009,49.0044798 C93.4502009,73.5065803 73.5068522,93.4501504 49.0050237,93.4501504 Z" id="Shape" fill="#00807D"></path>
                <path d="M72.1723385,34.6120126 L42.8400528,62.5827075 L26.8670085,46.6255101 C25.9821319,45.7427377 24.5478684,45.7427377 23.6629918,46.6255101 C22.7790027,47.5073974 22.7790027,48.9382503 23.6629918,49.8210227 L41.2265065,67.3427726 C41.6525254,67.7713201 42.2347511,68.008615 42.8400528,68 C43.4267164,68.0059586 43.9911914,67.7775181 44.4074473,67.3657936 L75.3080147,37.8987242 C76.2044292,37.0318896 76.2337182,35.6063492 75.3736925,34.7040972 C74.5127795,33.8027308 73.0847289,33.7611156 72.1723385,34.6120126 Z" id="Path" fill="#00807D"></path>
            </g>
        </g>
    </g>
</svg>