<?xml version="1.0" encoding="UTF-8"?>
<svg width="12px" height="17px" viewBox="0 0 12 17" version="1.1" xmlns="http://www.w3.org/2000/svg" xmlns:xlink="http://www.w3.org/1999/xlink">
    <title>F7D775A3-51E8-4EE8-AFDE-CF9569C8E29C</title>
    <g id="Mobile" stroke="none" stroke-width="1" fill="none" fill-rule="evenodd">
        <g id="Mobile-Part-2" transform="translate(-23.000000, -43.000000)" stroke="#1A1A1A" stroke-width="3">
            <polyline id="Path" transform="translate(33.071068, 51.500000) rotate(-315.000000) translate(-33.071068, -51.500000) " points="38.0710678 56.5 28.0710678 56.5 28.0710678 46.5 28.0710678 46.5"></polyline>
        </g>
    </g>
</svg>