<?xml version="1.0" encoding="UTF-8"?>
<svg width="32px" height="32px" viewBox="0 0 32 32" version="1.1" xmlns="http://www.w3.org/2000/svg" xmlns:xlink="http://www.w3.org/1999/xlink">
    <title>1FD93F37-0752-4DB5-8911-76E54B033711</title>
    <g id="Mobile" stroke="none" stroke-width="1" fill="none" fill-rule="evenodd">
        <g id="Homeapage" transform="translate(-273.000000, -10.000000)">
            <g id="account" transform="translate(273.000000, 10.000000)">
                <rect id="Rectangle" fill="#FAFAFF" opacity="0" x="0" y="0" width="32" height="32"></rect>
                <g id="person" transform="translate(0.333333, 1.333333)" fill="#6C6C6C" fill-rule="nonzero">
                    <path d="M22.9155208,23.0553698 C22.916681,22.9939531 22.9168958,22.9323646 22.916681,22.8706615 C22.8919167,18.375901 19.2250208,14.7009271 14.7303177,14.6668958 C10.1521406,14.6321771 6.41666667,18.3463958 6.41666667,22.9166667 C6.41666667,22.980375 6.41741146,23.0439687 6.41884375,23.1073333 C6.48157813,25.8584219 8.41414063,28.2148854 11.0823854,28.8878906 C12.2464948,29.1815104 13.4501354,29.3333333 14.6666667,29.3333333 C15.8829688,29.3333333 17.0863802,29.1815677 18.2503177,28.8880625 C20.9373542,28.210474 22.8695729,25.8261667 22.9155208,23.0553698 L22.9155208,23.0553698 Z" id="Path"></path>
                    <path d="M25.0371458,4.29527083 C22.2831927,1.54154687 18.561125,0 14.6666094,0 C10.7490052,0 7.06589583,1.52561979 4.29572917,4.29572917 C1.5255625,7.06589583 -2.84217094e-14,10.7490052 -2.84217094e-14,14.6666667 C-2.84217094e-14,18.1240469 1.22586979,21.4811667 3.45216667,24.1200208 C3.71158333,24.4271615 3.98429167,24.7243906 4.26828646,25.0098177 C4.4666875,25.2091927 4.80195833,25.0292396 4.75085417,24.7526354 C4.64085417,24.1571458 4.58333333,23.5434948 4.58333333,22.9166667 C4.58333333,18.7326563 7.14490104,15.1357708 10.7821771,13.6116979 C10.9709531,13.5325781 11.019651,13.284849 10.8715521,13.1435104 C9.77842708,12.1 9.11327083,10.6119063 9.17004687,8.97250521 C9.26921875,6.10872396 11.5860365,3.78176563 14.4494167,3.67090625 C17.5806354,3.54961979 20.1666667,6.06185938 20.1666667,9.16666667 C20.1666667,10.7291823 19.5115365,12.1413073 18.461724,13.1435104 C18.3136823,13.284849 18.3624375,13.5325781 18.5511562,13.6116979 C22.1884323,15.1357708 24.75,18.7326563 24.75,22.9166667 C24.75,23.5434948 24.6924792,24.1571458 24.5824219,24.7525781 C24.5313177,25.0291823 24.8665885,25.2091354 25.0649896,25.0097604 C25.3490417,24.724276 25.6218646,24.4269896 25.8813958,24.1196198 C28.1074635,21.481224 29.3333333,18.1241042 29.3333333,14.6666667 C29.3333333,10.748776 27.807599,7.0654375 25.0371458,4.29527083 Z" id="Path"></path>
                    <circle id="Oval" cx="14.6666667" cy="9.16666667" r="3.66666667"></circle>
                </g>
            </g>
        </g>
    </g>
</svg>