<?xml version="1.0" encoding="UTF-8"?>
<svg width="14px" height="12px" viewBox="0 0 14 12" version="1.1" xmlns="http://www.w3.org/2000/svg" xmlns:xlink="http://www.w3.org/1999/xlink">
    <title>7D0A3CB7-87E9-4601-8C3C-7F266291E2DB</title>
    <g id="Design" stroke="none" stroke-width="1" fill="none" fill-rule="evenodd">
        <g id="Style-Sheet" transform="translate(-467.000000, -1079.000000)" fill="#00807D" fill-rule="nonzero">
            <g id="Group-5" transform="translate(157.000000, 954.000000)">
                <path d="M322.889374,126.174356 C322.164658,125.417075 321.170242,125 320.089096,125 C319.28096,125 318.540863,125.24615 317.889313,125.731554 C317.560547,125.976572 317.26265,126.276335 317,126.626213 C316.737457,126.276438 316.439453,125.976572 316.11058,125.731554 C315.459137,125.24615 314.71904,125 313.910904,125 C312.829758,125 311.835236,125.417075 311.110519,126.174356 C310.394455,126.922787 310,127.945254 310,129.053545 C310,130.194251 310.441238,131.238432 311.38855,132.339725 C312.235992,133.324838 313.453964,134.324872 314.86441,135.482866 C315.346024,135.878332 315.891937,136.326587 316.458786,136.804068 C316.608536,136.930436 316.80069,137 317,137 C317.199203,137 317.391464,136.930436 317.541,136.804274 C318.107849,136.32669 318.654083,135.878229 319.13591,135.482558 C320.546143,134.324769 321.764114,133.324838 322.611557,132.339622 C323.558868,131.238432 324,130.194251 324,129.053442 C324,127.945254 323.605545,126.922787 322.889374,126.174356 Z" id="Path-Copy-2"></path>
            </g>
        </g>
    </g>
</svg>