<?xml version="1.0" encoding="UTF-8"?>
<svg width="42px" height="42px" viewBox="0 0 42 42" version="1.1" xmlns="http://www.w3.org/2000/svg" xmlns:xlink="http://www.w3.org/1999/xlink">
    <title>E2FA9D98-7F66-43BD-B8D9-5593F55107BA@2x</title>
    <g id="Design" stroke="none" stroke-width="1" fill="none" fill-rule="evenodd">
        <g id="Notification--Design" transform="translate(-391.000000, -455.000000)" fill="#00807D">
            <g id="Doc" transform="translate(391.640138, 455.500000)">
                <circle id="Oval" fill-opacity="0.0991313374" cx="20.5" cy="20.5" r="20.5"></circle>
                <g id="google-docs" transform="translate(14.000000, 12.000000)" fill-rule="nonzero">
                    <path d="M1.5,17.0666667 L11.5,17.0666667 C12.3271333,17.0666667 13,16.3938 13,15.5666667 L13,5 L9.5,5 C8.67286667,5 8,4.32713333 8,3.5 L8,0 L1.5,0 C0.672866667,0 0,0.672866667 0,1.5 L0,15.5666667 C0,16.3938 0.672866667,17.0666667 1.5,17.0666667 Z" id="Shape"></path>
                    <path d="M9.5,4 L12.7070333,4 L9,0.292966667 L9,3.5 C9,3.77586667 9.22413333,4 9.5,4 Z" id="Path"></path>
                </g>
            </g>
        </g>
    </g>
</svg>