<?xml version="1.0" encoding="UTF-8"?>
<svg width="20px" height="20px" viewBox="0 0 20 20" version="1.1" xmlns="http://www.w3.org/2000/svg" xmlns:xlink="http://www.w3.org/1999/xlink">
    <title>C68DBD83-63A6-44CF-8C08-E1B9802C1966@2x</title>
    <defs>
        <path d="M12.4074299,11.0830753 C14.8002593,11.0830753 16.7468295,13.0299141 16.7468295,15.4230736 L16.7468295,18.4368478 C16.7468295,18.9314005 16.34564,19.3326453 15.8511556,19.3326453 L1.64557047,19.3326453 C1.15108602,19.3326453 0.74989654,18.9314005 0.74989654,18.4368478 L0.74989654,15.4230736 C0.74989654,13.0299141 2.69646679,11.0830753 5.08929612,11.0830753 L12.4074299,11.0830753 Z M12.4074299,12.5830753 L5.08929612,12.5830753 C3.52477964,12.5830753 2.24968962,13.8583413 2.24968962,15.4230736 L2.24968962,17.8326453 L15.2470364,17.8326453 L15.2470364,15.4230736 C15.2470364,13.8583413 13.9719464,12.5830753 12.4074299,12.5830753 Z M8.74836303,0.750315331 C11.2600557,0.750315331 13.3031039,2.79364536 13.3031039,5.30568454 C13.3031039,7.81769658 11.2600829,9.86089612 8.74836303,9.86089612 C6.23664318,9.86089612 4.19362219,7.81769658 4.19362219,5.30568454 C4.19362219,2.79364536 6.23667037,0.750315331 8.74836303,0.750315331 Z M8.74836303,2.25031533 C7.06498321,2.25031533 5.69341527,3.62207249 5.69341527,5.30568454 C5.69341527,6.98924492 7.0649315,8.36089612 8.74836303,8.36089612 C10.4317946,8.36089612 11.8033108,6.98924492 11.8033108,5.30568454 C11.8033108,3.62207249 10.4317428,2.25031533 8.74836303,2.25031533 Z" id="path-1"></path>
    </defs>
    <g id="Design" stroke="none" stroke-width="1" fill="none" fill-rule="evenodd">
        <g id="My-Articles--Design" transform="translate(-27.000000, -127.000000)">
            <g id="Side_Nav_item-Hover" transform="translate(0.000000, 111.000000)">
                <g id="My-Profile-Icon" transform="translate(26.996275, 16.000000)">
                    <g id="Profile-icon" transform="translate(0.999862, 0.000000)">
                        <mask id="mask-2" fill="white">
                            <use xlink:href="#path-1"></use>
                        </mask>
                        <use id="Mask" fill="#161616" fill-rule="nonzero" xlink:href="#path-1"></use>
                    </g>
                </g>
            </g>
        </g>
    </g>
</svg>