<?xml version="1.0" encoding="UTF-8"?>
<svg width="7px" height="10px" viewBox="0 0 7 10" version="1.1" xmlns="http://www.w3.org/2000/svg" xmlns:xlink="http://www.w3.org/1999/xlink">
    <title>5515877B-9969-473C-B6AE-F36C9080B5F8</title>
    <g id="Design" stroke="none" stroke-width="1" fill="none" fill-rule="evenodd">
        <g id="Homepage-Final" transform="translate(-1108.000000, -1148.000000)" stroke="#1A1A1A" stroke-width="2">
            <g id="Group-5" transform="translate(1027.000000, 1145.000000)">
                <polyline id="Chevron_right" transform="translate(82.000000, 8.000000) rotate(-45.000000) translate(-82.000000, -8.000000) " points="85 5 85 11 79 11"></polyline>
            </g>
        </g>
    </g>
</svg>