<?xml version="1.0" encoding="UTF-8"?>
<svg width="19px" height="19px" viewBox="0 0 19 19" version="1.1" xmlns="http://www.w3.org/2000/svg" xmlns:xlink="http://www.w3.org/1999/xlink">
    <title>9002B5A9-BC00-4BE7-973D-57DA81FDF20B</title>
    <g id="CMS-Wireframe" stroke="none" stroke-width="1" fill="none" fill-rule="evenodd">
        <g id="Dashboard---Design" transform="translate(-36.000000, -359.000000)">
            <g id="Tab/Static-Copy-5" transform="translate(0.000000, 343.000000)">
                <g id="icon" transform="translate(36.857692, 17.000000)">
                    <rect id="Rectangle" fill="#001A3B" opacity="0" x="0" y="0" width="17.9307692" height="18"></rect>
                    <g id="icons/dashboard" fill="#FFFFFF" fill-rule="nonzero">
                        <g id="add" transform="translate(0.000000, 1.500000)">
                            <path d="M16.0501873,5.75176792 C17.0487413,4.27543533 15.9934848,2.25484613 14.2019017,2.25484613 C12.4107745,2.25484613 11.3554128,4.27476649 12.3532303,5.75116949 C12.0139268,5.94594161 11.7149848,6.18703944 11.4555277,6.47066117 C10.8265397,5.84332807 10.0748539,5.34004647 9.24037619,5.00006649 C9.98333035,4.31535429 10.4498201,3.33293959 10.4498201,2.2431239 C10.4498201,0.17916595 8.77711252,-1.5 6.72109287,-1.5 C4.66507323,-1.5 2.99233054,0.179130748 2.99233054,2.2431239 C2.99233054,3.3329748 3.45882033,4.31538949 4.20177449,5.00006649 C1.74042105,6.00275748 -2.65428705e-15,8.42841498 -2.65428705e-15,11.2548109 C-2.65428705e-15,11.6630826 0.329695332,11.9940509 0.736396721,11.9940509 C1.14309811,11.9940509 1.47279344,11.6630826 1.47279344,11.2548109 C1.47279344,8.34973872 3.82715896,5.98624779 6.72109287,5.98624779 C9.61502679,5.98624779 11.9693923,8.34970352 11.9693923,11.2548109 C11.9693923,11.6630826 12.2990876,11.9940509 12.705789,11.9940509 C13.1124904,11.9940509 13.4421857,11.6630826 13.4421857,11.2548109 C13.4421857,9.92738239 13.0581373,8.68841623 12.3960115,7.64358856 C12.807026,7.08982743 13.4608061,6.73717477 14.2042161,6.73717477 C15.4471836,6.73851245 16.4579758,7.75394652 16.4579758,9.00199477 L16.4579758,11.2548109 C16.4579758,11.6630826 16.7876711,11.9940509 17.1943725,11.9940509 C17.6010739,11.9940509 17.9307692,11.6630826 17.9307692,11.2548109 L17.9307692,9.00199477 C17.9307692,7.61261089 17.1728066,6.39765242 16.0501873,5.75176792 Z M4.46512399,2.2431239 C4.46512399,0.994406809 5.47714348,-0.0215200964 6.72105781,-0.0215200964 C7.96497214,-0.0215200964 8.97699163,0.994406809 8.97699163,2.2431239 C8.97699163,3.49187618 7.96497214,4.50776789 6.72105781,4.50776789 C5.47714348,4.50776789 4.46512399,3.49184098 4.46512399,2.2431239 Z M13.4421507,4.49604565 C13.4421507,4.07548852 13.7829972,3.73332603 14.2019017,3.73332603 C14.6208413,3.73332603 14.9616878,4.07548852 14.9616878,4.49604565 C14.9616878,4.91477228 14.6227349,5.25865967 14.2017965,5.25865967 C13.779245,5.25862447 13.4421507,4.91283618 13.4421507,4.49604565 L13.4421507,4.49604565 Z" id="Shape"></path>
                        </g>
                    </g>
                </g>
            </g>
        </g>
    </g>
</svg>